Fecha,Campaña,Estrategia,Creatividad,Imps,Clicks
9/1/17,Cabildo ,Canarias,Banner,20.458,23
9/2/17,Cabildo ,Canarias,Banner,20.497,19
9/3/17,Cabildo ,Canarias,Banner,20.486,38
9/4/17,Cabildo ,Canarias,Banner,20.383,39
9/5/17,Cabildo ,Canarias,Banner,20.264,46
9/6/17,Cabildo ,Canarias,Banner,20.335,35
9/7/17,Cabildo ,Canarias,Banner,20.341,43
9/8/17,Cabildo ,Canarias,Banner,20.322,28
9/9/17,Cabildo ,Canarias,Banner,20.392,30
9/10/17,Cabildo ,Canarias,Banner,20.161,57
9/11/17,Cabildo ,Canarias,Banner,24.236,60
9/12/17,Cabildo ,Canarias,Banner,24.211,47
9/13/17,Cabildo ,Canarias,Banner,24.285,42
9/14/17,Cabildo ,Canarias,Banner,24.271,34
9/15/17,Cabildo ,Canarias,Banner,25.183,27
9/16/17,Cabildo ,Canarias,Banner,25.240,28
9/17/17,Cabildo ,Canarias,Banner,25.289,34
9/18/17,Cabildo ,Canarias,Banner,25.207,37
9/19/17,Cabildo ,Canarias,Banner,25.204,36
9/20/17,Cabildo ,Canarias,Banner,30.212,45
9/21/17,Cabildo ,Canarias,Banner,30.139,32
9/22/17,Cabildo ,Canarias,Banner,14.107,37
9/23/17,Cabildo ,Canarias,Banner,11.703,40
9/24/17,Cabildo ,Canarias,Banner,14.210,59
9/1/17,Cabildo ,Canarias,Interstitial,83,1
9/2/17,Cabildo ,Canarias,Interstitial,46,0
9/3/17,Cabildo ,Canarias,Interstitial,37,0
9/4/17,Cabildo ,Canarias,Interstitial,48,1
9/5/17,Cabildo ,Canarias,Interstitial,38,0
9/6/17,Cabildo ,Canarias,Interstitial,92,0
9/7/17,Cabildo ,Canarias,Interstitial,71,1
9/8/17,Cabildo ,Canarias,Interstitial,109,3
9/9/17,Cabildo ,Canarias,Interstitial,63,3
9/10/17,Cabildo ,Canarias,Interstitial,294,2
9/11/17,Cabildo ,Canarias,Interstitial,214,1
9/12/17,Cabildo ,Canarias,Interstitial,200,1
9/13/17,Cabildo ,Canarias,Interstitial,211,1
9/14/17,Cabildo ,Canarias,Interstitial,123,1
9/15/17,Cabildo ,Canarias,Interstitial,103,0
9/16/17,Cabildo ,Canarias,Interstitial,97,1
9/17/17,Cabildo ,Canarias,Interstitial,128,1
9/18/17,Cabildo ,Canarias,Interstitial,104,3
9/19/17,Cabildo ,Canarias,Interstitial,140,2
9/20/17,Cabildo ,Canarias,Interstitial,109,1
9/21/17,Cabildo ,Canarias,Interstitial,143,0
9/22/17,Cabildo ,Canarias,Interstitial,172,2
9/23/17,Cabildo ,Canarias,Interstitial,130,2
9/24/17,Cabildo ,Canarias,Interstitial,167,2
