Fecha,Campaña,Estrategia,Creatividad,Imps,Clicks
8/21/17,Disney,Multi,Rich Media,12.794,176
8/22/17,Disney,Multi,Rich Media,9.646,245
8/23/17,Disney,Multi,Rich Media,12.796,173
8/24/17,Disney,Multi,Rich Media,12.180,198
8/25/17,Disney,Multi,Rich Media,12.902,151
8/26/17,Disney,Multi,Rich Media,12.950,99
8/27/17,Disney,Multi,Rich Media,12.985,130
8/28/17,Disney,Multi,Rich Media,12.935,111
8/29/17,Disney,Multi,Rich Media,12.904,155
8/30/17,Disney,Multi,Rich Media,11.957,208
8/31/17,Disney,Multi,Rich Media,12.657,205
8/21/17,Disney,Vaiana,Rich Media,3.070,439
8/22/17,Disney,Vaiana,Rich Media,2.540,226
8/23/17,Disney,Vaiana,Rich Media,3.060,600
8/24/17,Disney,Vaiana,Rich Media,1.589,256
8/25/17,Disney,Vaiana,Rich Media,758,133
8/26/17,Disney,Vaiana,Rich Media,813,143
8/27/17,Disney,Vaiana,Rich Media,865,142
8/28/17,Disney,Vaiana,Rich Media,768,125
8/29/17,Disney,Vaiana,Rich Media,754,134
8/30/17,Disney,Vaiana,Rich Media,690,126
8/31/17,Disney,Vaiana,Rich Media,787,164
8/21/17,Disney,Frozen,Rich Media,1.071,101
8/22/17,Disney,Frozen,Rich Media,2.371,165
8/23/17,Disney,Frozen,Rich Media,1.421,249
8/24/17,Disney,Frozen,Rich Media,1.246,201
8/25/17,Disney,Frozen,Rich Media,3.274,48
8/26/17,Disney,Frozen,Rich Media,3.280,41
8/27/17,Disney,Frozen,Rich Media,3.301,36
8/28/17,Disney,Frozen,Rich Media,3.296,40
8/29/17,Disney,Frozen,Rich Media,2.972,51
8/30/17,Disney,Frozen,Rich Media,3.280,52
8/31/17,Disney,Frozen,Rich Media,3.247,57
8/21/17,Disney,Minie,Rich Media,2.966,477
8/22/17,Disney,Minie,Rich Media,2.656,266
8/23/17,Disney,Minie,Rich Media,1.556,272
8/24/17,Disney,Minie,Rich Media,3.067,86
8/25/17,Disney,Minie,Rich Media,3.319,136
8/26/17,Disney,Minie,Rich Media,3.350,195
8/27/17,Disney,Minie,Rich Media,3.360,151
8/28/17,Disney,Minie,Rich Media,3.363,166
8/29/17,Disney,Minie,Rich Media,3.326,124
8/30/17,Disney,Minie,Rich Media,3.091,107
8/31/17,Disney,Minie,Rich Media,3.290,133
8/21/17,Disney,Elena,Rich Media,3.051,457
8/22/17,Disney,Elena,Rich Media,2.570,214
8/23/17,Disney,Elena,Rich Media,3.060,600
8/24/17,Disney,Elena,Rich Media,2.603,218
8/25/17,Disney,Elena,Rich Media,3.123,392
8/26/17,Disney,Elena,Rich Media,2.739,332
8/27/17,Disney,Elena,Rich Media,3.354,542
8/28/17,Disney,Elena,Rich Media,3.379,605
8/29/17,Disney,Elena,Rich Media,3.331,603
8/30/17,Disney,Elena,Rich Media,2.716,270
8/31/17,Disney,Elena,Rich Media,3.053,578
