Fecha,Campaña,Estrategia,Creatividad,Imps,Clicks
7/19/17,FH Vinaroz,Vinaroz,Interstitial,53,3
7/20/17,FH Vinaroz,Vinaroz,Interstitial,577,36
7/21/17,FH Vinaroz,Vinaroz,Interstitial,2.186,60
7/22/17,FH Vinaroz,Vinaroz,Interstitial,1.724,37
7/23/17,FH Vinaroz,Vinaroz,Interstitial,2.561,52
7/24/17,FH Vinaroz,Vinaroz,Interstitial,2.156,167
7/25/17,FH Vinaroz,Vinaroz,Interstitial,3.538,204
7/26/17,FH Vinaroz,Vinaroz,Interstitial,4.550,201
7/27/17,FH Vinaroz,Vinaroz,Interstitial,4.462,65
7/28/17,FH Vinaroz,Vinaroz,Interstitial,6.723,66
7/29/17,FH Vinaroz,Vinaroz,Interstitial,6.623,84
7/30/17,FH Vinaroz,Vinaroz,Interstitial,6.548,150
7/31/17,FH Vinaroz,Vinaroz,Interstitial,6.936,85
