Fecha,Campaña,Estrategia,Creatividad,Imps,Clicks
8/3/17,Fred Olsen Loropark,Gran Canaria,Interstitial-Banner,2.537,2
8/4/17,Fred Olsen Loropark,Gran Canaria,Interstitial-Banner,2.506,1
8/5/17,Fred Olsen Loropark,Gran Canaria,Interstitial-Banner,2.530,2
8/6/17,Fred Olsen Loropark,Gran Canaria,Interstitial-Banner,2.547,4
8/7/17,Fred Olsen Loropark,Gran Canaria,Interstitial-Banner,32.539,38
8/8/17,Fred Olsen Loropark,Gran Canaria,Interstitial-Banner,57.339,77
8/9/17,Fred Olsen Loropark,Gran Canaria,Interstitial-Banner,50.685,68
8/10/17,Fred Olsen Loropark,Gran Canaria,Interstitial-Banner,51.944,67
8/11/17,Fred Olsen Loropark,Gran Canaria,Interstitial-Banner,52.071,65
8/12/17,Fred Olsen Loropark,Gran Canaria,Interstitial-Banner,53.350,60
8/13/17,Fred Olsen Loropark,Gran Canaria,Interstitial-Banner,65.568,73
8/14/17,Fred Olsen Loropark,Gran Canaria,Interstitial-Banner,67.329,87
8/15/17,Fred Olsen Loropark,Gran Canaria,Interstitial-Banner,40.946,55
8/16/17,Fred Olsen Loropark,Gran Canaria,Interstitial-Banner,25.645,1
8/17/17,Fred Olsen Loropark,Gran Canaria,Interstitial-Banner,530.285,1.111
8/18/17,Fred Olsen Loropark,Gran Canaria,Interstitial-Banner,304.466,616
8/3/17,Fred Olsen Loropark,Las Palmas,Interstitial-Banner,2.497,2
8/4/17,Fred Olsen Loropark,Las Palmas,Interstitial-Banner,2.531,3
8/5/17,Fred Olsen Loropark,Las Palmas,Interstitial-Banner,2.528,1
8/6/17,Fred Olsen Loropark,Las Palmas,Interstitial-Banner,2.546,0
8/7/17,Fred Olsen Loropark,Las Palmas,Interstitial-Banner,45.387,40
8/8/17,Fred Olsen Loropark,Las Palmas,Interstitial-Banner,70.052,95
8/9/17,Fred Olsen Loropark,Las Palmas,Interstitial-Banner,74.385,103
8/10/17,Fred Olsen Loropark,Las Palmas,Interstitial-Banner,76.750,121
8/11/17,Fred Olsen Loropark,Las Palmas,Interstitial-Banner,76.340,81
8/12/17,Fred Olsen Loropark,Las Palmas,Interstitial-Banner,77.843,88
8/13/17,Fred Olsen Loropark,Las Palmas,Interstitial-Banner,55.948,71
8/14/17,Fred Olsen Loropark,Las Palmas,Interstitial-Banner,26.975,3
8/15/17,Fred Olsen Loropark,Las Palmas,Interstitial-Banner,15.964,1
8/16/17,Fred Olsen Loropark,Las Palmas,Interstitial-Banner,21.694,3
8/17/17,Fred Olsen Loropark,Las Palmas,Interstitial-Banner,330.884,676
8/18/17,Fred Olsen Loropark,Las Palmas,Interstitial-Banner,93.188,183
