Fecha,Campaña,Estrategia,Creatividad,Imps,Clicks
9/12/17,Guardian Glass,Rain,Interstitial,5078,92
9/13/17,Guardian Glass,Rain,Interstitial,5177,130
9/14/17,Guardian Glass,Rain,Interstitial,126,4
9/15/17,Guardian Glass,Rain,Interstitial,4946,124
9/16/17,Guardian Glass,Rain,Interstitial,4973,141
9/17/17,Guardian Glass,Rain,Interstitial,5059,152
9/18/17,Guardian Glass,Rain,Interstitial,5147,193
9/19/17,Guardian Glass,Rain,Interstitial,5222,183
9/20/17,Guardian Glass,Rain,Interstitial,5469,176
9/21/17,Guardian Glass,Rain,Interstitial,5456,123
9/22/17,Guardian Glass,Rain,Interstitial,5558,150
9/23/17,Guardian Glass,Rain,Interstitial,5389,168
9/24/17,Guardian Glass,Rain,Interstitial,5459,116
9/25/17,Guardian Glass,Rain,Interstitial,5311,104
9/26/17,Guardian Glass,Rain,Interstitial,5361,163
9/27/17,Guardian Glass,Rain,Interstitial,5342,119
9/28/17,Guardian Glass,Rain,Interstitial,2345,74
9/29/17,Guardian Glass,Rain,Interstitial,265,1
9/30/17,Guardian Glass,Rain,Interstitial,103,2
9/12/17,Guardian Glass,Desert,Banner,4918,15
9/13/17,Guardian Glass,Desert,Banner,4817,26
9/14/17,Guardian Glass,Desert,Banner,92,2
9/15/17,Guardian Glass,Desert,Banner,4807,32
9/16/17,Guardian Glass,Desert,Banner,4879,30
9/17/17,Guardian Glass,Desert,Banner,4881,39
9/18/17,Guardian Glass,Desert,Banner,5016,27
9/19/17,Guardian Glass,Desert,Banner,5121,27
9/20/17,Guardian Glass,Desert,Banner,5352,16
9/21/17,Guardian Glass,Desert,Banner,5394,19
9/22/17,Guardian Glass,Desert,Banner,5512,26
9/23/17,Guardian Glass,Desert,Banner,5229,37
9/24/17,Guardian Glass,Desert,Banner,5264,31
9/25/17,Guardian Glass,Desert,Banner,5256,26
9/26/17,Guardian Glass,Desert,Banner,5238,21
9/27/17,Guardian Glass,Desert,Banner,5232,15
9/28/17,Guardian Glass,Desert,Banner,2362,8
9/29/17,Guardian Glass,Desert,Banner,214,1
9/30/17,Guardian Glass,Desert,Banner,98,1
9/12/17,Guardian Glass,Rain,Robapáginas,4926,11
9/13/17,Guardian Glass,Rain,Robapáginas,4842,37
9/14/17,Guardian Glass,Rain,Robapáginas,195,2
9/15/17,Guardian Glass,Rain,Robapáginas,4791,31
9/16/17,Guardian Glass,Rain,Robapáginas,4873,40
9/17/17,Guardian Glass,Rain,Robapáginas,4844,17
9/18/17,Guardian Glass,Rain,Robapáginas,4963,41
9/19/17,Guardian Glass,Rain,Robapáginas,5139,56
9/20/17,Guardian Glass,Rain,Robapáginas,5315,67
9/21/17,Guardian Glass,Rain,Robapáginas,5412,64
9/22/17,Guardian Glass,Rain,Robapáginas,5497,65
9/23/17,Guardian Glass,Rain,Robapáginas,5219,56
9/24/17,Guardian Glass,Rain,Robapáginas,5280,44
9/25/17,Guardian Glass,Rain,Robapáginas,5243,70
9/26/17,Guardian Glass,Rain,Robapáginas,5244,38
9/27/17,Guardian Glass,Rain,Robapáginas,5274,60
9/28/17,Guardian Glass,Rain,Robapáginas,1196,19
9/29/17,Guardian Glass,Rain,Robapáginas,102,1
9/30/17,Guardian Glass,Rain,Robapáginas,65,0
