Fecha,Campaña,Estrategia,Creatividad,Imps,Clicks
8/16/17,KIA ,Niro,Interstitial,1.069,17
8/17/17,KIA ,Niro,Interstitial,459,6
8/18/17,KIA ,Niro,Interstitial,317,5
8/19/17,KIA ,Niro,Interstitial,168,3
8/20/17,KIA ,Niro,Interstitial,228,4
8/21/17,KIA ,Niro,Interstitial,2.429,18
8/22/17,KIA ,Niro,Interstitial,3.275,19
8/23/17,KIA ,Niro,Interstitial,2.688,10
8/24/17,KIA ,Niro,Interstitial,955,6
8/25/17,KIA ,Niro,Interstitial,842,16
8/26/17,KIA ,Niro,Interstitial,1.328,12
8/27/17,KIA ,Niro,Interstitial,1.071,12
8/28/17,KIA ,Niro,Interstitial,960,14
8/29/17,KIA ,Niro,Interstitial,723,10
8/30/17,KIA ,Niro,Interstitial,46,0
8/31/17,KIA ,Niro,Interstitial,771,8
8/16/17,KIA ,Niro,Banner,591.718,1.483
8/17/17,KIA ,Niro,Banner,544.138,668
8/18/17,KIA ,Niro,Banner,525.088,717
8/19/17,KIA ,Niro,Banner,509.053,775
8/20/17,KIA ,Niro,Banner,494.194,516
8/21/17,KIA ,Niro,Banner,519.094,1.467
8/22/17,KIA ,Niro,Banner,527.534,1.407
8/23/17,KIA ,Niro,Banner,410.951,1.427
8/24/17,KIA ,Niro,Banner,365.009,844
8/25/17,KIA ,Niro,Banner,152.624,484
8/26/17,KIA ,Niro,Banner,157.809,542
8/27/17,KIA ,Niro,Banner,158.996,508
8/28/17,KIA ,Niro,Banner,161.074,495
8/29/17,KIA ,Niro,Banner,161.250,463
8/30/17,KIA ,Niro,Banner,13.868,42
8/31/17,KIA ,Niro,Banner,153.617,440
