Fecha,Campaña,Estrategia,Creatividad,Imps,Clicks
6/26/17,Solo Loewe,Solo Loewe,Solo Loewe,590,6
6/27/17,Solo Loewe,Solo Loewe,Solo Loewe,26.736,1.028
6/28/17,Solo Loewe,Solo Loewe,Solo Loewe,183.669,4.922
6/29/17,Solo Loewe,Solo Loewe,Solo Loewe,55.207,3.169
6/30/17,Solo Loewe,Solo Loewe,Solo Loewe,218.345,7.189
7/1/17,Solo Loewe,Solo Loewe,Solo Loewe,151.410,4.044
7/2/17,Solo Loewe,Solo Loewe,Solo Loewe,221.727,7.107
7/3/17,Solo Loewe,Solo Loewe,Solo Loewe,210.671,4.938
7/4/17,Solo Loewe,Solo Loewe,Solo Loewe,219.799,4.360
7/5/17,Solo Loewe,Solo Loewe,Solo Loewe,217.086,5.183
7/6/17,Solo Loewe,Solo Loewe,Solo Loewe,86.447,4.261
7/7/17,Solo Loewe,Solo Loewe,Solo Loewe,198.382,6.016
7/8/17,Solo Loewe,Solo Loewe,Solo Loewe,200.388,5.105
7/9/17,Solo Loewe,Solo Loewe,Solo Loewe,190.240,5.097
