Fecha,Campaña,Estrategia,Creatividad,Imps,Clicks
7/5/17,LOR,LOR,LOR,46.434,31
7/6/17,LOR,LOR,LOR,46.745,20
7/7/17,LOR,LOR,LOR,47.371,25
7/8/17,LOR,LOR,LOR,46.453,23
7/9/17,LOR,LOR,LOR,46.173,26
7/10/17,LOR,LOR,LOR,46.405,19
7/11/17,LOR,LOR,LOR,46.567,25
7/12/17,LOR,LOR,LOR,46.869,30
7/13/17,LOR,LOR,LOR,46.819,17
7/14/17,LOR,LOR,LOR,46.500,28
7/15/17,LOR,LOR,LOR,46.420,34
7/16/17,LOR,LOR,LOR,46.408,24
7/17/17,LOR,LOR,LOR,46.943,18
7/18/17,LOR,LOR,LOR,45.955,19
7/19/17,LOR,LOR,LOR,46.113,20
7/20/17,LOR,LOR,LOR,46.235,24
7/21/17,LOR,LOR,LOR,46.430,29
7/22/17,LOR,LOR,LOR,46.086,26
7/23/17,LOR,LOR,LOR,46.003,18
7/24/17,LOR,LOR,LOR,46.371,24
7/25/17,LOR,LOR,LOR,6.322,2
7/26/17,LOR,LOR,LOR,6.505,4
7/27/17,LOR,LOR,LOR,6.891,2
7/28/17,LOR,LOR,LOR,6.360,1
7/29/17,LOR,LOR,LOR,6.191,1
7/30/17,LOR,LOR,LOR,6.605,2
