Fecha,Campaña,Estrategia,Creatividad,Imps,Clicks
9/1/17,Oxford,Jóvenes,Rich Media,29254,723
9/2/17,Oxford,Jóvenes,Rich Media,23384,444
9/3/17,Oxford,Jóvenes,Rich Media,22897,464
9/4/17,Oxford,Jóvenes,Rich Media,22310,438
9/5/17,Oxford,Jóvenes,Rich Media,22095,424
9/6/17,Oxford,Jóvenes,Rich Media,22185,384
9/7/17,Oxford,Jóvenes,Rich Media,3810,55
9/8/17,Oxford,Jóvenes,Rich Media,11033,168
9/9/17,Oxford,Jóvenes,Rich Media,9682,176
9/10/17,Oxford,Jóvenes,Rich Media,9372,182
9/11/17,Oxford,Jóvenes,Rich Media,9423,164
9/12/17,Oxford,Jóvenes,Rich Media,9204,143
9/13/17,Oxford,Jóvenes,Rich Media,9129,186
9/14/17,Oxford,Jóvenes,Rich Media,9795,182
9/1/17,Oxford,Niños,Rich Media,27188,604
9/2/17,Oxford,Niños,Rich Media,20458,439
9/3/17,Oxford,Niños,Rich Media,19354,425
9/4/17,Oxford,Niños,Rich Media,19000,376
9/5/17,Oxford,Niños,Rich Media,18819,326
9/6/17,Oxford,Niños,Rich Media,19364,359
9/7/17,Oxford,Niños,Rich Media,3528,53
9/8/17,Oxford,Niños,Rich Media,10079,150
9/9/17,Oxford,Niños,Rich Media,9292,170
9/10/17,Oxford,Niños,Rich Media,8761,152
9/11/17,Oxford,Niños,Rich Media,8743,158
9/12/17,Oxford,Niños,Rich Media,8629,160
9/13/17,Oxford,Niños,Rich Media,8632,152
9/14/17,Oxford,Niños,Rich Media,9117,179
