Fecha,Campaña,Estrategia,Creatividad,Imps,Clicks
10/1/17,Mango,Journeys,Rich media,1.750,65
10/2/17,Mango,Journeys,Rich media,1.732,50
10/3/17,Mango,Journeys,Rich media,3.651,116
10/4/17,Mango,Journeys,Rich media,3.226,179
10/5/17,Mango,Journeys,Rich media,3.460,235
10/6/17,Mango,Journeys,Rich media,3.296,161
10/7/17,Mango,Journeys,Rich media,3.505,224
10/8/17,Mango,Journeys,Rich media,3.434,239
10/9/17,Mango,Journeys,Rich media,1.175,78
10/10/17,Mango,Journeys,Rich media,0,0
10/11/17,Mango,Journeys,Rich media,0,0
10/12/17,Mango,Journeys,Rich media,0,0
10/13/17,Mango,Journeys,Rich media,136.670,7.888
10/14/17,Mango,Journeys,Rich media,136.507,8.699
10/15/17,Mango,Journeys,Rich media,136.792,8.527
10/1/17,Mango,Journeys,Preroll,2.236,10
10/2/17,Mango,Journeys,Preroll,2.600,29
10/3/17,Mango,Journeys,Preroll,3.245,19
10/4/17,Mango,Journeys,Preroll,3.923,11
10/5/17,Mango,Journeys,Preroll,3.665,11
10/6/17,Mango,Journeys,Preroll,2.676,36
10/7/17,Mango,Journeys,Preroll,2.815,47
10/8/17,Mango,Journeys,Preroll,2.675,37
10/9/17,Mango,Journeys,Preroll,2.789,50
10/10/17,Mango,Journeys,Preroll,2.722,40
10/11/17,Mango,Journeys,Preroll,635,11
10/12/17,Mango,Journeys,Preroll,632,1
10/13/17,Mango,Journeys,Preroll,1.649,8
10/14/17,Mango,Journeys,Preroll,1.665,15
10/15/17,Mango,Journeys,Preroll,2.138,23
